<svg width="14" height="17" viewBox="0 0 14 17" fill="none" xmlns="http://www.w3.org/2000/svg">
<path d="M7.72766 0.54376C7.384 0.200099 6.82682 0.200099 6.48315 0.54376L0.882868 6.14405C0.539207 6.48771 0.539207 7.04489 0.882868 7.38855C1.22653 7.73222 1.78371 7.73222 2.12738 7.38855L7.10541 2.41052L12.0834 7.38855C12.4271 7.73222 12.9843 7.73222 13.3279 7.38855C13.6716 7.04489 13.6716 6.48771 13.3279 6.14405L7.72766 0.54376ZM7.98541 16.166L7.98541 1.16601H6.22541L6.22541 16.166H7.98541Z" fill="#333640"/>
</svg>
