<svg width="131" height="53" viewBox="0 0 131 53" fill="none" xmlns="http://www.w3.org/2000/svg">
<path d="M18.0228 25.5937H15.4712C11.4617 25.5937 7.57358 22.6831 7.57358 15.4051C7.57358 7.82499 11.219 4.73189 14.9243 4.73189H18.0228V25.5937ZM22.0323 0.850586H15.1072C8.30167 0.850586 2.5318 6.00631 2.5318 16.0124C2.5318 22.0161 5.32614 26.4433 10.3081 28.6254L1.01245 45.3637C0.708248 45.9096 1.01245 46.3344 1.49784 46.3344H5.81153C6.17558 46.3344 6.41994 46.2133 6.54128 45.9096L14.9858 29.475H18.0228V45.9096C18.0228 46.0921 18.2057 46.3344 18.4484 46.3344H22.2152C22.5792 46.3344 22.7006 46.1519 22.7006 45.8499V1.45627C22.7006 1.03312 22.4579 0.850586 22.0323 0.850586Z" fill="#A9AFB8"/>
<path d="M44.8678 15.9272H41.101C40.7968 15.9272 40.6156 16.1694 40.6156 16.352V27.9345H33.6289V16.352C33.6289 16.0483 33.5076 15.9272 33.2034 15.9272H29.4366C29.134 15.9272 28.9512 16.1097 28.9512 16.352V45.826C28.9512 46.128 29.0725 46.3105 29.3751 46.3105H33.2034C33.4461 46.3105 33.6289 46.128 33.6289 45.826V31.7561H40.6156V45.826C40.6156 46.128 40.7968 46.3105 41.101 46.3105H44.8678C45.172 46.3105 45.2933 46.0666 45.2933 45.826V16.352C45.2933 16.1097 45.1105 15.9272 44.8678 15.9272Z" fill="#A9AFB8"/>
<path d="M130.868 44.3695L130.383 42.3085C130.322 42.126 130.262 42.0646 130.079 42.0646C129.775 42.0646 128.136 42.7316 125.765 42.7316C121.149 42.7316 118.9 38.3044 118.9 31.2703C118.9 25.0841 120.783 18.9593 123.943 18.9593C124.793 18.9593 125.827 19.2015 127.466 20.7182C127.649 20.9007 127.77 20.9605 127.953 20.9605C128.136 20.9605 128.317 20.8393 128.5 20.5357L130.14 17.8674C130.262 17.6865 130.321 17.504 130.321 17.3214C130.321 17.0792 130.079 16.8983 129.715 16.7158C127.223 15.4414 125.522 15.1991 124.065 15.1991C118.355 15.1991 113.92 21.991 113.92 32.6044C113.92 41.7609 118.172 47.0378 124.247 47.0378C126.799 47.0378 129.532 45.8247 130.626 45.0365C130.868 44.854 130.93 44.6117 130.868 44.3695Z" fill="#A9AFB8"/>
<path d="M104.465 29.6329L111.756 16.3512C111.877 16.1703 111.815 15.9264 111.573 15.9264H107.989C106.955 15.9264 106.591 16.2915 106.227 17.0797L100.759 28.4199C100.455 29.087 100.151 29.5118 99.8468 29.6943V16.3512C99.8468 16.1089 99.7254 15.9264 99.4827 15.9264H95.5331C95.3519 15.9264 95.169 16.1089 95.169 16.3512V45.885C95.169 46.0675 95.2904 46.3098 95.5331 46.3098H99.4827C99.7254 46.3098 99.8468 46.1273 99.8468 45.885V30.6634C100.03 30.7846 100.151 30.9671 100.272 31.2094L107.197 45.4005C107.563 46.1273 108.11 46.3098 108.9 46.3098H112.788C113.03 46.3098 113.092 46.0675 112.969 45.885L104.465 29.6329Z" fill="#A9AFB8"/>
<path d="M63.0928 42.4894H54.2843C57.3828 37.2142 58.5979 31.2702 59.0235 23.9922C59.1448 22.4158 59.2047 20.7796 59.2047 19.7475H63.0928V42.4894ZM69.654 42.4894H68.9259C68.0133 42.4894 67.7706 42.126 67.7706 41.3975V16.3523C67.7706 16.0487 67.6492 15.9275 67.4065 15.9275H55.2567C54.9525 15.9275 54.7696 16.1084 54.7696 16.3523V18.5344C54.7696 25.8723 54.3458 35.3341 50.4576 42.4894H49.1195C48.7554 42.4894 48.6341 42.6719 48.6341 42.9739V51.8284C48.6341 52.1321 48.8768 52.2532 49.0596 52.2532H51.9753C52.6436 52.2532 52.8863 51.7687 52.8863 51.3439V46.3093H65.8872V51.8284C65.8872 52.0707 66.07 52.2532 66.3127 52.2532H69.4113C69.7753 52.2532 70.141 51.9495 70.141 51.3439V42.9739C70.141 42.6719 69.9582 42.4894 69.654 42.4894Z" fill="#A9AFB8"/>
<path d="M81.3789 28.3591C79.9825 28.3591 77.7949 28.6014 77.7949 28.6014C77.7949 28.6014 77.7949 27.6921 77.9163 26.7213C78.4632 21.5673 79.7382 18.9587 81.8659 18.9587C83.8092 18.9587 85.0243 21.627 85.3285 26.2982C85.3883 27.2673 85.3883 28.3591 85.3883 28.3591H81.3789ZM82.0471 15.2002C75.486 15.2002 72.5703 23.4474 72.5703 32.423C72.5703 41.5795 76.7011 47.0372 82.7769 47.0372C85.7524 47.0372 88.3655 45.8856 89.702 45.036C89.9447 44.9149 90.0062 44.734 89.9447 44.4901L89.4593 42.4291C89.3978 42.1868 89.2765 42.0657 88.9723 42.0657C88.7296 42.0657 86.9675 42.7328 84.4774 42.7328C79.7997 42.7328 77.6121 38.6689 77.6121 33.3323V31.897C77.6121 31.897 79.9825 32.1807 81.3789 32.1807H90.2489V29.6335C90.2489 20.2331 86.9077 15.2002 82.0471 15.2002Z" fill="#A9AFB8"/>
</svg>
