<svg width="154" height="43" viewBox="0 0 154 43" fill="none" xmlns="http://www.w3.org/2000/svg">
<path d="M21.4756 39.4815C19.1704 39.8863 16.8246 40.0077 14.398 40.331L6.99657 18.6531V41.2613C4.69135 41.5039 2.5883 41.8275 0.404297 42.151V0.736328H6.55196L14.9641 24.2347V0.736328H21.4756V39.4815ZM34.2155 15.9028C36.7232 15.9028 40.5654 15.7815 42.8706 15.7815V22.2524C39.9989 22.2524 36.6423 22.2524 34.2155 22.3738V31.9996C38.0174 31.757 41.8191 31.4332 45.6611 31.3118V37.5398L27.7443 38.9557V0.736328H45.6611V7.20738H34.2155V15.9028ZM69.7253 7.20753H63.0117V36.9743C60.8276 36.9743 58.6436 36.9743 56.5409 37.055V7.20753H49.8273V0.736328H69.7256L69.7253 7.20753ZM80.2407 15.4581H89.0981V21.929H80.2407V36.6103H73.8905V0.736328H91.9696V7.20738H80.2407V15.4581ZM102.485 30.948C106.165 31.0287 109.886 31.3123 113.486 31.5141V37.9044C107.702 37.5401 101.919 37.1766 96.014 37.055V0.736328H102.485V30.948ZM118.946 38.3493C121.008 38.4708 123.192 38.5922 125.295 38.8345V0.736328H118.946V38.3493ZM153.647 0.736328L145.437 20.4326L153.647 42.151C151.22 41.8275 148.793 41.3826 146.367 40.9781L141.716 29.0069L136.984 40.0077C134.638 39.6029 132.373 39.4815 130.028 39.158L138.359 20.1897L130.836 0.736328H137.793L142.039 11.6158L146.569 0.736328H153.647Z" fill="#A9AFB8"/>
</svg>
