<svg width="43" height="43" viewBox="0 0 43 43" fill="none" xmlns="http://www.w3.org/2000/svg">
<rect x="0.775391" y="0.208984" width="42" height="42" rx="4" fill="#7CAE30"/>
<path d="M31.4292 13.6681H22.1713C22.1415 13.6231 22.1069 13.5816 22.0681 13.5441L19.5341 11.1125C19.2585 10.8456 18.8896 10.6967 18.5061 10.6973H12.1188C10.8881 10.6973 9.89062 11.6949 9.89062 12.9254V26.2942C9.89062 27.5249 10.8881 28.5223 12.1188 28.5223H18.6786C19.0888 28.5223 19.4213 28.1898 19.4213 27.7796C19.4213 27.3695 19.0888 27.0369 18.6786 27.0369H12.1188C11.7086 27.0369 11.376 26.7044 11.376 26.2942V12.9254C11.376 12.5152 11.7086 12.1827 12.1188 12.1827H18.5061L20.9919 14.5691C21.2726 14.9368 21.7085 15.153 22.1713 15.1535H31.4292C31.8394 15.1535 32.172 15.4861 32.172 15.8962V26.2942C32.172 26.7044 31.8394 27.0369 31.4292 27.0369H24.9949C24.5847 27.0369 24.2522 27.3695 24.2522 27.7796C24.2522 28.1898 24.5847 28.5223 24.9949 28.5223H31.4292C32.6599 28.5223 33.6574 27.5249 33.6574 26.2942V15.8962C33.6574 14.6658 32.6597 13.6681 31.4292 13.6681Z" fill="white"/>
<path d="M24.3994 25.5143C24.6845 25.8093 25.1546 25.8175 25.4497 25.5326C25.7447 25.2476 25.7528 24.7774 25.468 24.4824C25.462 24.4762 25.4558 24.4702 25.4497 24.4643L22.2991 21.3128C22.009 21.0229 21.539 21.0229 21.2489 21.3128L18.0976 24.4643C17.8026 24.7491 17.7944 25.2193 18.0793 25.5143C18.3643 25.8093 18.8345 25.8175 19.1295 25.5326C19.1357 25.5266 19.1417 25.5205 19.1477 25.5143L21.0313 23.6309V32.9786C21.0313 33.3888 21.3638 33.7213 21.774 33.7213C22.1842 33.7213 22.5167 33.3888 22.5167 32.9786V23.6309L24.3994 25.5143Z" fill="white"/>
</svg>
