<svg width="392" height="2" viewBox="0 0 392 2" fill="none" xmlns="http://www.w3.org/2000/svg">
<line x1="0.982422" y1="0.709961" x2="391.241" y2="0.709961" stroke="#C9C9C9" stroke-dasharray="1 4"/>
</svg>
