<svg width="20" height="15" viewBox="0 0 20 15" fill="none" xmlns="http://www.w3.org/2000/svg">
<path d="M0.69458 1.08018C0.69458 0.56074 1.11567 0.139648 1.63511 0.139648H1.75405C2.27349 0.139648 2.69458 0.56074 2.69458 1.08018C2.69458 1.59963 2.27349 2.02072 1.75405 2.02072H1.63511C1.11567 2.02072 0.69458 1.59963 0.69458 1.08018Z" fill="#282937"/>
<rect x="0.69458" y="6.23633" width="2" height="1.88029" rx="0.940145" fill="#282937"/>
<rect x="0.69458" y="12.2598" width="2" height="1.88029" rx="0.940145" fill="#282937"/>
<path d="M4.13379 0.139648H19.0162C19.2924 0.139648 19.5162 0.363506 19.5162 0.639648V1.52072C19.5162 1.79686 19.2924 2.02072 19.0162 2.02072H4.13379V0.139648Z" fill="#282937"/>
<path d="M4.13379 6.23633H19.0162C19.2924 6.23633 19.5162 6.46019 19.5162 6.73633V7.61662C19.5162 7.89276 19.2924 8.11662 19.0162 8.11662H4.13379V6.23633Z" fill="#282937"/>
<path d="M4.13379 12.2598H19.0162C19.2924 12.2598 19.5162 12.4836 19.5162 12.7598V13.6401C19.5162 13.9162 19.2924 14.1401 19.0162 14.1401H4.13379V12.2598Z" fill="#282937"/>
</svg>
