<svg width="21" height="21" viewBox="0 0 21 21" fill="none" xmlns="http://www.w3.org/2000/svg">
<path d="M19.9961 11.3359H11.5586V19.7734C11.5586 20.2049 11.2088 20.5547 10.7773 20.5547C10.3459 20.5547 9.99609 20.2049 9.99609 19.7734V11.3359H1.55859C1.12711 11.3359 0.777344 10.9862 0.777344 10.5547C0.777344 10.1232 1.12711 9.77344 1.55859 9.77344H9.99609V1.33594C9.99609 0.904453 10.3459 0.554688 10.7773 0.554688C11.2088 0.554688 11.5586 0.904453 11.5586 1.33594V9.77344H19.9961C20.4276 9.77344 20.7773 10.1232 20.7773 10.5547C20.7773 10.9862 20.4276 11.3359 19.9961 11.3359Z" fill="#7CAE30"/>
</svg>
