<svg width="19" height="17" viewBox="0 0 19 17" fill="none" xmlns="http://www.w3.org/2000/svg">
<path d="M9.73944 11.4422C9.28249 11.4686 8.84312 11.4949 8.40375 11.5301C7.39321 11.6092 6.40023 11.7937 5.44241 12.1452C4.04522 12.6461 3.00831 13.5775 2.28774 14.8605C2.08563 15.2208 1.89231 15.5986 1.69899 15.9677C1.53203 16.2753 1.26841 16.4159 0.987212 16.3543C0.679654 16.284 0.503906 16.038 0.503906 15.6865C0.503906 14.2629 0.547843 12.8482 0.811464 11.4422C1.05751 10.1329 1.50567 8.92023 2.39319 7.8921C3.31587 6.82883 4.51974 6.21372 5.84663 5.82707C7.03293 5.48436 8.26316 5.36134 9.49339 5.30862C9.56369 5.30862 9.63399 5.29983 9.73065 5.29104C9.73065 5.20317 9.73065 5.12408 9.73065 5.045C9.73065 3.73568 9.73065 2.42636 9.73065 1.11704C9.73065 0.809483 9.81852 0.563436 10.1085 0.431626C10.4073 0.299815 10.6445 0.422838 10.8642 0.624947C13.4741 3.03269 16.0839 5.44043 18.685 7.85695C19.054 8.19088 19.054 8.55994 18.6938 8.89386C16.0751 11.3104 13.4565 13.7269 10.8379 16.1522C10.627 16.3456 10.3985 16.4422 10.1173 16.328C9.83609 16.205 9.73065 15.9765 9.73065 15.6777C9.73065 14.3596 9.73065 13.0415 9.73065 11.7234C9.73943 11.6267 9.73944 11.5477 9.73944 11.4422ZM17.446 8.36662C15.2843 6.37189 13.1489 4.39473 10.9697 2.39121C10.9697 2.52302 10.9697 2.60211 10.9697 2.68119C10.9697 3.73568 10.9697 4.79016 10.9697 5.84465C10.9697 6.26644 10.7236 6.51249 10.3106 6.52127C9.86246 6.53006 9.4143 6.53885 8.97493 6.56521C7.77985 6.6443 6.60234 6.80247 5.47756 7.24184C4.01886 7.80423 2.97316 8.77963 2.41077 10.2559C2.05048 11.1962 1.9011 12.1803 1.83959 13.1733C1.83959 13.1997 1.84837 13.2348 1.86595 13.2875C3.01709 11.7673 4.59004 11.0028 6.37387 10.5986C7.65683 10.3086 8.96615 10.2295 10.2755 10.212C10.7324 10.2032 10.9785 10.458 10.9785 10.915C10.9785 11.9694 10.9785 13.0239 10.9785 14.0784C10.9785 14.1487 10.9785 14.219 10.9785 14.3333C13.1489 12.3297 15.2843 10.3526 17.446 8.36662Z" fill="#7CAE30"/>
</svg>
